1	3104645	3110797	minus	13	L	L1
1	7611060	7617163	plus	11	L	L1
1	8154320	8160776	minus	11	L	L1
1	23193596	23199915	minus	11	L	L1
1	24307336	24313614	plus	10	L	L1
1	29202392	29208681	plus	12	L	L1
1	35671011	35677321	plus	11	L	L1
1	37419811	37425970	plus	10	L	L1
1	42107089	42113404	minus	10	L	L1
1	42195529	42201839	plus	14	L	L1
1	43342083	43348289	plus	11	L	L1
1	44542945	44549291	plus	9	L	L1
1	45394513	45400790	minus	11	L	L1
1	50367736	50374030	plus	13	L	L1
1	52469471	52475756	minus	13	L	L1
1	53353698	53360001	plus	11	L	L1
1	54140057	54146291	plus	11	L	L1
1	55021659	55027874	plus	17	L	L1
1	60098465	60104647	minus	18	L	L1
1	65099804	65106208	plus	9	L	L1
1	65203877	65210311	plus	10	L	L1
1	66614952	66621435	plus	12	L	L1
1	67332093	67338323	plus	18	L	L1
1	67463395	67469530	plus	14	L	L1
1	69603654	69609917	minus	12	L	L1
1	72809776	72816065	minus	15	L	L1
1	75244281	75250638	minus	10	L	L1
1	76777844	76784015	plus	13	L	L1
1	82995163	83001221	minus	18	L	L1
1	85175207	85181540	minus	9	L	L1
1	86983511	86989812	plus	11	L	L1
1	88512950	88519256	minus	10	L	L1
1	91020378	91026663	minus	11	L	L1
1	91618734	91625026	plus	10	L	L1
1	101195192	101201474	plus	10	L	L1
1	102647955	102654262	plus	9	L	L1
1	105083127	105089425	plus	19	L	L1
1	111863973	111870335	plus	11	L	L1
2	7032580	7038785	minus	13	L	L1
2	14236387	14242531	plus	14	L	L1
2	17666185	17672453	minus	15	L	L1
2	17810530	17816703	plus	13	L	L1
2	17870246	17876514	plus	11	L	L1
2	23457784	23464152	plus	8	L	L1
2	26983953	26990354	minus	12	L	L1
2	29491968	29498263	plus	9	L	L1
2	30604012	30610262	minus	9	L	L1
2	40734827	40741142	plus	12	L	L1
2	42151594	42157925	minus	17	L	L1
2	44902578	44908889	plus	10	L	L1
2	45037985	45044461	plus	13	L	L1
2	46815552	46821863	plus	17	L	L1
2	49603472	49609700	minus	13	L	L1
2	49828713	49834934	minus	15	L	L1
2	49899231	49905532	minus	10	L	L1
2	50827028	50833301	minus	19	L	L1
2	57312306	57318595	minus	9	L	L1
2	60538008	60544310	minus	12	L	L1
2	62140622	62146942	minus	10	L	L1
2	63160561	63166853	minus	11	L	L1
2	78570183	78576416	plus	7	L	L1
3	10070444	10076738	plus	11	L	L1
3	16016928	16022943	minus	9	L	L1
3	17001222	17007525	minus	10	L	L1
3	32084619	32090995	minus	15	L	L1
3	32340257	32346302	minus	11	L	L1
3	37006301	37012596	minus	10	L	L1
3	41054504	41060528	plus	10	L	L1
3	46130526	46136876	plus	11	L	L1
3	56250913	56257106	plus	14	L	L1
3	66648478	66654746	minus	17	L	L1
3	81617799	81624090	minus	14	L	L1
3	82850837	82857163	plus	12	L	L1
3	83255025	83261434	minus	9	L	L1
4	1222511	1228819	minus	11	L	L1
4	4208617	4214965	minus	8	L	L1
4	4257794	4263986	plus	19	L	L1
4	16144011	16150209	minus	9	L	L1
4	16333129	16339167	minus	12	L	L1
4	17213975	17220145	minus	19	L	L1
4	17697617	17703923	plus	10	L	L1
4	18777984	18784344	plus	11	L	L1
4	26475964	26482220	minus	9	L	L1
4	38339262	38345494	minus	11	L	L1
4	41466973	41473210	minus	14	L	L1
4	43574128	43580323	plus	17	L	L1
4	45642768	45648998	minus	9	L	L1
4	45866249	45872615	plus	15	L	L1
4	49836139	49842426	plus	10	L	L1
4	54352620	54358929	minus	11	L	L1
4	57059263	57065586	plus	10	L	L1
4	57380692	57386974	minus	13	L	L1
4	61879983	61886153	plus	17	L	L1
4	62355358	62361672	minus	11	L	L1
4	64820005	64826216	plus	13	L	L1
4	65199911	65206224	minus	10	L	L1
4	66102363	66108613	minus	13	L	L1
4	68505315	68511494	plus	13	L	L1
4	79701028	79707411	plus	9	L	L1
4	81756108	81762361	plus	10	L	L1
4	84171764	84178041	plus	14	L	L1
5	5705317	5711705	minus	12	L	L1
5	12795545	12801835	minus	10	L	L1
5	16211325	16217615	minus	14	L	L1
5	21988401	21994629	minus	11	L	L1
5	23957714	23964048	minus	12	L	L1
5	30851444	30857639	minus	14	L	L1
5	36323589	36329933	plus	12	L	L1
5	39335841	39342142	minus	10	L	L1
5	43372036	43378343	minus	10	L	L1
5	44783877	44790205	plus	11	L	L1
5	45418102	45424335	plus	19	L	L1
5	45524649	45530974	minus	12	L	L1
5	53796193	53802492	minus	11	L	L1
5	64383905	64390220	plus	10	L	L1
5	69789724	69795955	minus	14	L	L1
6	5143363	5149640	minus	13	L	L1
6	13548208	13554387	minus	9	L	L1
6	13833025	13839350	plus	11	L	L1
6	14018578	14024852	minus	10	L	L1
6	16643950	16650106	plus	16	L	L1
6	22983047	22989401	minus	12	L	L1
6	23246325	23252616	plus	10	L	L1
6	29882791	29889084	plus	11	L	L1
6	44241686	44247963	plus	12	L	L1
6	46513523	46519817	plus	9	L	L1
6	47132959	47139279	plus	9	L	L1
6	55695868	55702216	plus	10	L	L1
6	55754359	55760523	minus	8	L	L1
6	63943324	63949577	plus	16	L	L1
6	68936367	68942616	minus	18	L	L1
6	77211045	77217239	plus	11	L	L1
7	5770976	5777342	plus	12	L	L1
7	6489833	6496116	plus	19	L	L1
7	9357214	9363509	plus	11	L	L1
7	9441502	9447850	plus	10	L	L1
7	22976940	22983213	plus	14	L	L1
7	24553480	24559772	plus	9	L	L1
7	24893847	24900063	plus	13	L	L1
7	26021337	26027770	plus	11	L	L1
7	26258237	26264531	minus	12	L	L1
7	28046871	28052885	plus	13	L	L1
7	33515064	33521387	plus	9	L	L1
7	39623249	39629544	plus	10	L	L1
7	45910409	45916690	plus	12	L	L1
7	45924705	45931029	plus	11	L	L1
7	46445456	46451782	minus	11	L	L1
7	49199604	49205899	plus	10	L	L1
7	49704097	49710401	minus	9	L	L1
7	53076219	53082522	minus	11	L	L1
7	56146470	56152639	plus	10	L	L1
7	56483555	56489844	minus	11	L	L1
7	69270443	69276715	minus	19	L	L1
7	72700164	72706474	plus	10	L	L1
7	74395011	74401215	minus	16	L	L1
8	604457	610725	plus	15	L	L1
8	985492	991758	plus	11	L	L1
8	2314313	2320552	minus	17	L	L1
8	2602588	2608610	minus	16	L	L1
8	5473862	5480225	plus	11	L	L1
8	5769586	5775859	minus	19	L	L1
8	8053349	8059527	plus	18	L	L1
8	17911705	17918060	plus	11	L	L1
8	18801722	18808062	plus	11	L	L1
8	20990385	20996705	plus	18	L	L1
8	21383959	21390389	plus	9	L	L1
8	22713323	22719604	plus	19	L	L1
8	28579109	28585285	minus	17	L	L1
8	28595720	28602036	minus	11	L	L1
8	33165008	33171297	minus	10	L	L1
8	33389951	33396235	minus	11	L	L1
8	34995060	35001356	minus	13	L	L1
8	40141500	40147794	plus	9	L	L1
8	41989478	41995771	minus	16	L	L1
8	45515738	45522033	minus	11	L	L1
8	50207039	50213251	plus	12	L	L1
8	50989118	50995542	minus	11	L	L1
8	52476656	52482796	plus	18	L	L1
8	52778752	52785068	plus	13	L	L1
8	62755036	62761348	minus	13	L	L1
8	63306058	63312370	minus	9	L	L1
8	73432001	73438291	minus	15	L	L1
8	73802237	73808537	plus	15	L	L1
8	73916274	73922560	minus	9	L	L1
8	74154718	74161029	plus	11	L	L1
8	74187441	74193692	minus	13	L	L1
8	74281556	74287851	minus	14	L	L1
9	8663861	8670106	plus	11	L	L1
9	8885728	8892002	plus	13	L	L1
9	8935151	8941455	plus	11	L	L1
9	8989904	8996172	minus	14	L	L1
9	9046483	9052767	plus	16	L	L1
9	16067130	16073486	plus	10	L	L1
9	16344231	16350420	plus	11	L	L1
9	16642662	16648887	minus	12	L	L1
9	16870836	16877116	plus	13	L	L1
9	16978834	16985070	plus	8	L	L1
9	27670803	27677054	plus	10	L	L1
9	35019469	35025746	plus	16	L	L1
9	39927099	39933323	minus	13	L	L1
X	7364612	7370926	minus	10	L	L1
X	15007108	15013446	minus	14	L	L1
X	15219499	15225796	minus	11	L	L1
X	17039916	17046216	minus	14	L	L1
X	17051102	17057463	plus	11	L	L1
X	17121983	17128290	plus	14	L	L1
X	17621301	17627621	minus	10	L	L1
X	18742905	18749250	plus	8	L	L1
X	19297195	19303499	plus	11	L	L1
X	21471291	21477594	plus	9	L	L1
X	22562664	22569101	plus	11	L	L1
X	22733496	22739769	plus	11	L	L1
X	25045447	25051791	plus	10	L	L1
X	28704999	28711308	plus	11	L	L1
X	30978473	30984800	minus	13	L	L1
X	32265543	32271736	plus	16	L	L1
X	42403060	42409393	plus	15	L	L1
X	43066437	43072696	plus	15	L	L1
X	43984013	43990181	plus	11	L	L1
X	44161771	44168085	minus	11	L	L1
X	46322761	46329137	minus	12	L	L1
X	47687020	47693289	plus	18	L	L1
X	48356457	48362757	plus	12	L	L1
X	49108293	49114564	minus	19	L	L1
X	49513391	49519774	minus	11	L	L1
X	49565357	49571664	minus	9	L	L1
X	49788834	49795232	minus	11	L	L1
X	51219262	51225570	minus	10	L	L1
X	51406970	51413276	plus	11	L	L1
X	51628955	51635317	plus	11	L	L1
X	52828765	52835060	minus	8	L	L1
X	52845057	52851353	plus	11	L	L1
X	53001238	53007525	minus	11	L	L1
X	54266254	54272556	minus	11	L	L1
X	58828407	58834591	minus	9	L	L1
X	60718203	60724619	minus	16	L	L1
X	60811005	60817263	plus	13	L	L1
X	60981616	60987794	minus	19	L	L1
X	63030133	63036376	minus	15	L	L1
X	65472120	65478348	plus	15	L	L1
X	66166943	66173259	minus	12	L	L1
X	66186512	66192849	minus	10	L	L1
X	67588247	67594491	minus	18	L	L1
X	67852057	67858099	plus	19	L	L1
X	67964789	67971085	minus	10	L	L1
X	69475735	69481893	plus	12	L	L1
X	72532349	72538646	plus	11	L	L1
X	73450228	73456523	minus	13	L	L1
X	76106484	76112910	minus	14	L	L1
X	77559297	77565466	plus	19	L	L1
X	78102257	78108546	minus	11	L	L1
X	78141383	78147688	plus	11	L	L1
X	78287952	78294248	minus	13	L	L1
X	78507102	78513279	minus	10	L	L1
X	79016454	79022566	minus	16	L	L1
X	79121231	79127519	plus	12	L	L1
X	79365541	79371847	minus	12	L	L1
X	80611619	80617828	minus	14	L	L1
X	84011422	84017793	minus	14	L	L1
X	86078195	86084325	plus	15	L	L1
X	86934705	86940970	plus	14	L	L1
X	87124285	87130596	minus	14	L	L1
X	88726145	88732474	minus	11	L	L1
X	90512408	90518719	plus	11	L	L1
X	93799925	93806209	minus	10	L	L1
X	94093879	94100035	plus	18	L	L1
X	98967688	98974116	minus	17	L	L1
X	99015911	99022188	plus	17	L	L1
X	100404338	100410473	plus	15	L	L1
X	102072679	102078960	minus	13	L	L1
X	102502567	102508853	plus	10	L	L1
X	102677980	102684125	minus	19	L	L1
X	103910945	103917268	plus	10	L	L1
X	108268616	108274817	plus	11	L	L1
X	109416238	109422602	plus	10	L	L1
X	109443950	109450306	minus	17	L	L1
X	113707250	113713573	plus	16	L	L1
X	115176942	115183122	minus	8	L	L1
X	120088247	120094517	plus	10	L	L1
X	120131036	120137212	plus	10	L	L1
10	4098491	4104794	minus	10	L	L1
10	5311643	5317903	minus	10	L	L1
10	5329410	5335713	plus	12	L	L1
10	6615801	6622078	plus	12	L	L1
10	29110429	29116587	minus	18	L	L1
10	29234141	29240455	minus	15	L	L1
10	35684179	35690531	plus	10	L	L1
10	42761641	42767883	minus	11	L	L1
10	43498291	43504569	plus	15	L	L1
10	50663800	50670235	minus	14	L	L1
10	55713965	55720242	minus	10	L	L1
10	57827212	57833500	plus	15	L	L1
11	628917	635185	plus	15	L	L1
11	887443	893751	plus	17	L	L1
11	4577272	4583481	minus	16	L	L1
11	7508975	7515078	minus	9	L	L1
11	8318614	8324906	plus	12	L	L1
11	10977847	10984034	minus	15	L	L1
11	13162211	13168501	minus	12	L	L1
11	15314212	15320507	minus	11	L	L1
11	31568585	31574765	minus	19	L	L1
11	32871298	32877453	minus	19	L	L1
11	33281232	33287375	minus	19	L	L1
11	36482776	36489232	plus	10	L	L1
11	39383107	39389532	plus	9	L	L1
11	41957182	41963501	minus	10	L	L1
11	47835742	47841956	minus	18	L	L1
11	47854086	47860465	plus	10	L	L1
11	48425009	48431206	plus	13	L	L1
11	48744228	48750424	minus	19	L	L1
11	49624374	49630653	plus	13	L	L1
11	59048941	59055328	plus	11	L	L1
11	59666807	59672908	plus	19	L	L1
11	63895233	63901433	plus	18	L	L1
11	64911350	64917679	minus	10	L	L1
12	91146	97294	plus	15	L	L1
12	1924995	1931277	plus	11	L	L1
12	16893842	16900160	plus	12	L	L1
12	17662112	17668407	minus	13	L	L1
12	20844037	20850355	plus	11	L	L1
12	20889163	20895477	plus	11	L	L1
12	22090373	22096704	plus	12	L	L1
12	24919724	24926015	plus	11	L	L1
12	24972419	24978512	minus	15	L	L1
12	26102710	26109016	plus	9	L	L1
12	27286409	27292680	plus	11	L	L1
12	28034991	28041308	minus	10	L	L1
12	31924445	31930748	minus	11	L	L1
12	34813251	34819563	minus	10	L	L1
12	35922488	35928917	plus	11	L	L1
12	35961727	35968021	plus	11	L	L1
12	35972314	35978603	minus	12	L	L1
12	37971796	37978064	plus	12	L	L1
12	39374035	39380345	minus	10	L	L1
12	39717232	39723613	plus	17	L	L1
12	39729899	39736161	minus	14	L	L1
12	40367187	40373477	minus	10	L	L1
12	40714607	40720900	minus	10	L	L1
12	41520080	41526360	plus	8	L	L1
12	43305546	43311822	plus	14	L	L1
12	44399194	44405484	plus	10	L	L1
12	46486355	46492618	minus	19	L	L1
12	49975300	49981589	plus	18	L	L1
12	51125614	51131816	plus	18	L	L1
12	51766330	51772556	plus	16	L	L1
12	57884805	57891098	minus	10	L	L1
12	61973474	61979721	plus	9	L	L1
12	69015259	69021286	minus	10	L	L1
13	1251209	1257512	minus	13	L	L1
13	1390961	1397243	minus	18	L	L1
13	2438293	2444552	plus	15	L	L1
13	15766296	15772543	plus	11	L	L1
13	22104834	22111159	plus	16	L	L1
13	24638268	24644488	minus	7	L	L1
13	28080095	28086392	plus	10	L	L1
13	28110577	28116836	minus	16	L	L1
13	30292433	30298580	plus	18	L	L1
13	33119584	33125897	plus	11	L	L1
13	40386184	40392494	minus	9	L	L1
13	40647886	40654238	plus	16	L	L1
13	41660037	41666197	minus	11	L	L1
13	41829626	41835947	minus	14	L	L1
13	43617447	43623748	plus	16	L	L1
13	47802152	47808446	minus	12	L	L1
13	50906608	50912917	plus	11	L	L1
13	57393279	57399638	plus	13	L	L1
14	1615366	1621657	minus	18	L	L1
14	2702452	2708722	plus	11	L	L1
14	4180257	4186543	plus	11	L	L1
14	10751438	10757837	plus	18	L	L1
14	15719639	15725952	minus	10	L	L1
14	21913102	21919419	plus	10	L	L1
14	25024321	25030586	minus	17	L	L1
14	25559633	25565818	plus	18	L	L1
14	27714969	27721268	minus	12	L	L1
14	27913227	27919521	plus	10	L	L1
14	27932430	27938656	minus	14	L	L1
14	34538185	34544440	plus	16	L	L1
14	34612658	34618953	plus	11	L	L1
14	35652731	35658886	minus	17	L	L1
14	50016506	50022783	plus	13	L	L1
14	57906975	57913511	minus	15	L	L1
15	362252	368603	plus	11	L	L1
15	11488424	11494692	minus	16	L	L1
15	11778559	11784865	plus	13	L	L1
15	13642260	13648575	minus	12	L	L1
15	24180371	24186664	plus	14	L	L1
15	33855629	33861830	plus	17	L	L1
15	33970595	33976917	plus	13	L	L1
15	36601452	36607769	plus	15	L	L1
15	39085951	39092142	plus	10	L	L1
15	39875641	39882019	plus	11	L	L1
15	46851928	46858227	plus	16	L	L1
15	49201920	49208206	plus	9	L	L1
15	50632830	50639128	minus	12	L	L1
15	56835954	56842181	plus	18	L	L1
15	57491067	57497303	minus	14	L	L1
16	5073274	5079621	plus	11	L	L1
16	11553583	11559879	plus	13	L	L1
16	16831773	16838128	minus	11	L	L1
16	18500859	18507152	plus	11	L	L1
16	21798874	21805146	plus	11	L	L1
16	22889703	22895993	minus	14	L	L1
16	26370532	26376834	plus	10	L	L1
16	30037234	30043379	minus	12	L	L1
16	44328790	44335086	plus	12	L	L1
16	51215705	51222010	plus	15	L	L1
16	56215952	56222261	minus	10	L	L1
16	58603863	58610287	plus	12	L	L1
17	12577414	12583617	minus	13	L	L1
17	16703148	16709392	minus	14	L	L1
17	28370465	28377010	plus	17	L	L1
17	28838018	28844378	minus	11	L	L1
17	40762012	40768281	minus	11	L	L1
17	41059196	41065501	plus	10	L	L1
17	43580252	43586437	plus	18	L	L1
17	45123276	45129596	plus	11	L	L1
17	45606475	45612664	plus	18	L	L1
17	47205038	47211228	plus	9	L	L1
17	55484938	55491227	plus	11	L	L1
17	55914897	55921158	minus	11	L	L1
17	57812389	57818636	plus	17	L	L1
17	57953594	57959892	minus	8	L	L1
17	58023263	58029565	plus	10	L	L1
17	61825970	61832300	minus	10	L	L1
18	221755	227927	minus	13	L	L1
18	3006162	3012455	plus	9	L	L1
18	3787269	3793684	plus	13	L	L1
18	4184196	4190261	plus	12	L	L1
18	5195485	5201747	plus	16	L	L1
18	5215455	5221752	minus	11	L	L1
18	5419836	5425987	minus	10	L	L1
18	6358983	6365297	minus	10	L	L1
18	11436965	11443258	plus	14	L	L1
18	11535636	11541895	minus	19	L	L1
18	14009236	14015516	minus	13	L	L1
18	21130872	21136958	plus	10	L	L1
18	27472984	27479343	minus	13	L	L1
18	29367834	29374124	minus	7	L	L1
18	29532945	29539260	minus	12	L	L1
18	29632571	29638877	minus	10	L	L1
18	30912677	30918687	minus	11	L	L1
19	302163	308443	plus	13	L	L1
19	4095043	4101290	minus	16	L	L1
19	6376951	6383347	plus	11	L	L1
19	11136379	11142714	minus	11	L	L1
19	13410039	13416288	minus	14	L	L1
19	14034624	14040928	minus	10	L	L1
19	20119157	20125415	minus	15	L	L1
19	20296077	20302345	plus	16	L	L1
19	20550508	20556785	minus	13	L	L1
19	23354474	23360781	minus	14	L	L1
19	25124777	25131107	minus	10	L	L1
19	27874266	27880533	minus	18	L	L1
19	32825338	32831573	plus	12	L	L1
19	34344042	34350373	minus	10	L	L1
19	34868522	34874828	plus	11	L	L1
19	39898250	39904395	minus	12	L	L1
20	13131393	13137553	minus	18	L	L1
20	13501650	13507922	plus	10	L	L1
20	15289836	15296191	plus	12	L	L1
20	15598061	15604334	plus	14	L	L1
20	23013399	23019701	plus	12	L	L1
20	27669501	27675834	plus	9	L	L1
20	28049187	28055493	minus	10	L	L1
20	30936142	30942345	plus	14	L	L1
20	32969166	32975813	minus	18	L	L1
20	34440294	34446483	minus	10	L	L1
21	4751412	4757717	minus	11	L	L1
21	5433018	5439164	minus	17	L	L1
21	7526006	7532165	plus	13	L	L1
21	7626850	7633070	plus	17	L	L1
21	8968798	8975123	plus	17	L	L1
21	10355482	10361917	plus	16	L	L1
21	11094005	11100137	minus	11	L	L1
21	14086147	14092401	minus	14	L	L1
21	14985534	14991890	minus	10	L	L1
21	27809499	27815729	plus	18	L	L1
21	28497362	28503441	minus	10	L	L1
21	30012001	30018332	minus	15	L	L1
21	30117864	30124114	minus	12	L	L1
21	30197422	30203726	plus	15	L	L1
21	30369315	30375625	plus	9	L	L1
21	30530078	30536443	minus	11	L	L1
21	34183026	34189309	minus	10	L	L1
21	45001734	45007924	minus	18	L	L1
22	2782903	2789019	plus	11	L	L1
22	3801370	3807579	minus	19	L	L1
22	4177151	4183430	plus	13	L	L1
22	4609911	4616225	plus	13	L	L1
22	17020975	17027335	minus	13	L	L1
22	18537964	18544241	minus	11	L	L1
22	24407273	24413714	minus	14	L	L1
22	26151407	26157711	plus	8	L	L1
22	27004625	27010972	minus	10	L	L1
22	28333630	28339939	plus	11	L	L1
22	28792228	28798525	plus	16	L	L1
22	29543660	29549892	minus	13	L	L1
22	29673573	29679850	plus	12	L	L1
22	29809604	29815866	minus	15	L	L1
22	30020986	30027334	plus	10	L	L1
22	30164881	30171355	plus	12	L	L1
22	33051691	33058000	minus	10	L	L1
22	35312950	35319207	plus	13	L	L1
22	38084501	38090961	plus	12	L	L1
22	40818230	40824423	plus	16	L	L1
22	42548837	42555118	minus	10	L	L1
22	42565487	42571919	minus	18	L	L1
22	42715775	42722081	plus	9	L	L1
22	51193471	51199701	plus	11	L	L1
22	52605092	52611435	plus	10	L	L1
22	53140568	53146852	plus	9	L	L1
23	4710101	4716372	minus	15	L	L1
23	9562217	9568511	minus	12	L	L1
23	9674272	9680584	minus	10	L	L1
23	11065808	11072108	plus	10	L	L1
23	17846641	17852952	plus	10	L	L1
23	17913340	17919683	minus	17	L	L1
23	20705999	20712302	plus	10	L	L1
23	21247492	21253740	minus	13	L	L1
23	27431026	27437330	plus	11	L	L1
23	35510886	35517300	minus	13	L	L1
23	36616261	36622551	plus	10	L	L1
23	36799686	36805994	plus	13	L	L1
23	39971942	39978236	minus	8	L	L1
23	40343743	40350043	minus	11	L	L1
23	41528058	41534360	plus	12	L	L1
23	41847407	41853504	minus	11	L	L1
23	41871873	41878167	plus	10	L	L1
23	42392138	42398495	plus	12	L	L1
23	42816228	42822519	plus	10	L	L1
24	2707596	2713839	minus	14	L	L1
24	4747081	4753379	minus	18	L	L1
24	5554535	5560886	plus	9	L	L1
24	7437275	7443510	minus	18	L	L1
24	11230779	11236912	plus	17	L	L1
24	12716465	12722789	plus	12	L	L1
24	30212915	30219142	plus	12	L	L1
24	32831075	32837331	plus	14	L	L1
25	2609101	2615385	plus	15	L	L1
25	7298757	7304869	plus	11	L	L1
25	8299788	8306141	plus	12	L	L1
25	13010522	13016833	minus	9	L	L1
25	13148262	13154571	minus	9	L	L1
25	13979592	13985889	plus	11	L	L1
25	19775410	19781691	minus	13	L	L1
25	21108921	21115220	minus	8	L	L1
25	22254814	22261112	minus	10	L	L1
25	22399056	22405124	plus	11	L	L1
25	22981781	22988088	minus	9	L	L1
25	25767966	25774188	plus	15	L	L1
25	37117396	37123736	plus	12	L	L1
25	47115181	47121493	minus	10	L	L1
25	50211944	50218314	minus	13	L	L1
26	3327921	3334226	plus	12	L	L1
26	9327660	9333839	minus	17	L	L1
26	24976001	24982306	minus	11	L	L1
26	28805206	28811522	minus	11	L	L1
26	31367614	31373924	minus	11	L	L1
26	32847923	32854208	minus	10	L	L1
27	629327	635351	plus	9	L	L1
27	8862498	8868815	plus	10	L	L1
27	11608683	11614953	minus	12	L	L1
27	13121348	13127621	plus	14	L	L1
27	17648094	17654324	plus	18	L	L1
27	21956955	21963175	plus	18	L	L1
27	27215531	27221878	minus	17	L	L1
27	28411286	28417427	minus	19	L	L1
27	28449388	28455956	plus	19	L	L1
27	31346352	31352660	minus	9	L	L1
27	32988656	32994914	minus	11	L	L1
27	35440285	35446584	minus	15	L	L1
27	35600379	35606676	minus	10	L	L1
27	35677058	35683288	plus	10	L	L1
27	36490427	36496694	plus	15	L	L1
27	45821081	45827392	minus	11	L	L1
28	96219	102279	plus	14	L	L1
28	4378802	4385146	plus	11	L	L1
28	5467569	5473778	plus	16	L	L1
28	6074360	6080605	minus	8	L	L1
28	18533205	18539355	minus	17	L	L1
28	25896488	25902786	minus	16	L	L1
28	27579400	27585747	minus	14	L	L1
28	27685584	27691864	minus	15	L	L1
28	30181830	30188161	minus	12	L	L1
28	30473732	30480048	plus	11	L	L1
28	30904917	30911103	plus	17	L	L1
29	27849	34132	minus	16	L	L1
29	1524195	1530514	plus	11	L	L1
29	5121183	5127481	minus	10	L	L1
29	6806598	6812866	plus	14	L	L1
29	8412684	8418977	minus	14	L	L1
29	8489036	8495087	minus	12	L	L1
29	8571864	8578142	plus	19	L	L1
29	12691853	12698101	minus	14	L	L1
29	13086512	13092808	minus	11	L	L1
29	14795499	14801828	plus	11	L	L1
29	15697155	15703446	minus	12	L	L1
29	17047943	17054174	minus	14	L	L1
29	17210103	17216409	minus	11	L	L1
29	19757769	19764076	plus	10	L	L1
29	28461368	28467654	minus	12	L	L1
29	28958658	28964855	minus	17	L	L1
29	33062290	33068501	plus	14	L	L1
29	40082401	40088407	plus	10	L	L1
30	1293539	1299669	plus	19	L	L1
30	10428260	10434576	minus	11	L	L1
30	12526828	12532944	plus	18	L	L1
30	14933348	14939640	minus	11	L	L1
30	18536690	18542867	minus	16	L	L1
30	18951473	18957510	minus	8	L	L1
30	26721076	26727366	plus	10	L	L1
31	14137317	14143653	plus	12	L	L1
31	23516320	23522495	plus	12	L	L1
32	8316478	8322762	minus	16	L	L1
32	9955146	9961407	plus	12	L	L1
32	10969843	10976055	plus	12	L	L1
32	12391515	12397809	minus	9	L	L1
32	19443826	19450191	minus	16	L	L1
32	25195313	25201607	minus	12	L	L1
32	27881209	27887443	plus	8	L	L1
32	29654691	29660980	plus	13	L	L1
32	33641562	33647741	plus	18	L	L1
32	34359685	34366005	minus	10	L	L1
32	37377008	37383326	minus	16	L	L1
32	38062855	38069187	plus	14	L	L1
32	38771563	38777741	minus	18	L	L1
33	4364377	4370695	minus	12	L	L1
33	5427622	5433975	plus	12	L	L1
33	14695501	14701835	minus	10	L	L1
33	15780820	15787117	plus	9	L	L1
33	16033203	16039614	plus	12	L	L1
33	20392648	20398931	plus	9	L	L1
33	20536152	20542443	plus	13	L	L1
33	24598003	24604315	minus	11	L	L1
33	25009253	25015545	plus	13	L	L1
34	1214651	1220814	minus	18	L	L1
34	2618802	2625101	minus	12	L	L1
34	5819427	5825716	plus	10	L	L1
34	5960788	5967071	plus	11	L	L1
34	8033348	8039651	plus	10	L	L1
34	8629527	8635854	plus	8	L	L1
34	13699798	13706090	minus	16	L	L1
34	16698882	16705047	minus	18	L	L1
34	17832090	17838383	minus	16	L	L1
34	18602952	18609279	plus	10	L	L1
34	25043692	25050035	plus	12	L	L1
34	27459643	27465978	minus	11	L	L1
34	38292023	38298331	minus	17	L	L1
35	2758973	2765126	plus	12	L	L1
35	11638656	11645097	plus	14	L	L1
35	25699478	25705745	plus	13	L	L1
36	7854375	7861360	plus	15	L	L1
36	8343552	8349929	plus	9	L	L1
36	12095892	12102333	minus	18	L	L1
36	24383709	24389712	plus	13	L	L1
36	25266819	25273102	plus	9	L	L1
37	869523	875829	plus	12	L	L1
37	12300459	12306765	plus	11	L	L1
37	15258773	15264965	minus	13	L	L1
37	17061734	17067874	minus	17	L	L1
37	18870529	18876833	minus	10	L	L1
37	24212458	24218774	minus	10	L	L1
38	3426668	3432857	minus	18	L	L1
38	7883755	7890087	plus	12	L	L1
38	8957661	8963823	plus	18	L	L1
38	10172232	10178556	plus	13	L	L1
Un_JH373233	69453	75626	plus	13	L	L1
Un_JH373236	180788	187086	minus	16	L	L1
Un_JH373239	660754	666979	plus	17	L	L1
Un_JH373241	544024	550026	minus	15	L	L1
Un_JH373242	250484	256761	minus	14	L	L1
Un_JH373242	487522	493816	plus	14	L	L1
Un_JH373250	208011	214027	minus	11	L	L1
Un_JH373261	178942	185225	plus	19	L	L1
Un_JH373282	11004	17328	plus	17	L	L1
Un_JH373298	124175	130183	plus	19	L	L1
Un_JH373507	1103	7352	plus	16	L	L1
Un_JH373615	3572	9866	minus	15	L	L1
Un_AAEX03021919	8067	14316	minus	13	L	L1
Un_AAEX03022555	4482	10800	plus	15	L	L1
Un_AAEX03023586	4018	10251	plus	16	L	L1
Un_AAEX03023665	0	6023	minus	12	L	L1
Un_AAEX03024844	0	6003	minus	14	L	L1
Un_AAEX03024920	458	6708	minus	12	L	L1
